/home/congnt/dev-lapcode-projet/dar-web/src/main/java/com/lip6/darweb/dao/UserDAOImpl.java
/home/congnt/dev-lapcode-projet/dar-web/src/main/java/com/lip6/dar/hibernate/LinesTabHome.java
/home/congnt/dev-lapcode-projet/dar-web/src/main/java/com/lip6/dar/hibernate/LinesTab.java
/home/congnt/dev-lapcode-projet/dar-web/src/main/java/com/lip6/darweb/action/IndexAction.java
/home/congnt/dev-lapcode-projet/dar-web/src/main/java/com/lip6/dar/hibernate/ProchainsDepartsTab.java
/home/congnt/dev-lapcode-projet/dar-web/src/main/java/com/lip6/darweb/listener/HibernateServletContextListener.java
/home/congnt/dev-lapcode-projet/dar-web/src/main/java/com/lip6/dar/util/TypeTransit.java
/home/congnt/dev-lapcode-projet/dar-web/src/main/java/com/lip6/dar/hibernate/StopAreasTabHome.java
/home/congnt/dev-lapcode-projet/dar-web/src/main/java/com/lip6/darweb/model/User.java
/home/congnt/dev-lapcode-projet/dar-web/src/main/java/com/lip6/dar/util/DateUtil.java
/home/congnt/dev-lapcode-projet/dar-web/src/main/java/com/lip6/dar/hibernate/ProchainsDepartsTabHome.java
/home/congnt/dev-lapcode-projet/dar-web/src/main/java/com/lip6/dar/util/EnumTransit.java
/home/congnt/dev-lapcode-projet/dar-web/src/main/java/com/lip6/dar/hibernate/StopAreasTab.java
/home/congnt/dev-lapcode-projet/dar-web/src/main/java/com/lip6/darweb/dao/UserDAO.java
